<svg width="35" height="40" viewBox="0 0 35 40" fill="none" xmlns="http://www.w3.org/2000/svg">
<path d="M6.29921 19.9753C8.40945 21.1091 9.98425 22.3375 11.0236 23.2824C12.4724 24.5422 14.2677 26.1485 15.685 28.8257C16.6299 30.6209 17.0709 32.2587 17.3228 33.4556C17.5433 32.2587 18.0157 30.6209 18.9606 28.8257C20.3465 26.1485 22.1417 24.5422 23.5906 23.2824C24.6614 22.3375 26.2362 21.1091 28.315 19.9753C26.2047 18.8414 24.6299 17.6131 23.5906 16.6682C22.1417 15.4083 20.3465 13.8021 18.9291 11.1249C17.9843 9.32961 17.5433 7.69181 17.2913 6.49496C17.0709 7.69181 16.5984 9.32961 15.6535 11.1249C14.2677 13.7706 12.4724 15.3769 11.0236 16.6682C9.98425 17.6131 8.40945 18.8099 6.29921 19.9753Z" fill="#161615"/>
<path d="M17.298 3.14961L16.3627 4.08498L17.298 5.02036L18.2334 4.08498L17.298 3.14961Z" fill="#161615"/>
<path d="M31.4961 19.9753L30.5512 20.9202L29.6063 19.9753L30.5512 19.0304L31.4961 19.9753Z" fill="#161615"/>
<path d="M5.03937 19.9753L4.09449 20.9202L3.14961 19.9753L4.09449 19.0304L5.03937 19.9753Z" fill="#161615"/>
<path d="M17.2969 34.9608L16.3615 35.8962L17.2969 36.8315L18.2323 35.8962L17.2969 34.9608Z" fill="#161615"/>
</svg>
