<svg width="449" height="101" viewBox="0 0 449 101" fill="none" xmlns="http://www.w3.org/2000/svg">
<path d="M415.165 49.5742L414.802 50.125L415.165 50.6758L447.142 99.125H1V1.125H281.307L285.564 12.4761L287.499 12.1666L287.959 1.125H315.031L315.5 16.1562L317.446 16.4501L322.714 1.125H447.142L415.165 49.5742Z" fill="#161615" stroke="#AA8444" stroke-width="2"/>
</svg>
