<svg width="35" height="40" viewBox="0 0 35 40" fill="none" xmlns="http://www.w3.org/2000/svg">
<path d="M15.755 29.1996H18.8906L19.3665 29.656L18.8906 30.1124H15.755L15.2791 29.656L15.755 29.1996Z" fill="#161615"/>
<path d="M6.29222 12.7402C6.29222 13.9382 6.51619 15.1078 6.88015 16.1918L7.86003 15.2504L9.42783 16.7908L7.86003 18.3027C9.79178 21.3835 13.2913 23.4374 17.2948 23.4374C21.2983 23.4374 24.7979 21.3835 26.7297 18.3027L25.1619 16.7908L26.7297 15.2504L27.7095 16.1918C28.1015 15.1078 28.2975 13.9382 28.2975 12.7402H6.29222ZM17.3228 18.3027L15.755 16.7623L17.3228 15.2219L18.8906 16.7623L17.3228 18.3027Z" fill="#161615"/>
<path d="M20.4865 31.5958H14.1873C14.1873 33.2788 12.7875 34.648 11.0517 34.648V35.2756H23.6501V34.648C21.8863 34.6195 20.4865 33.2788 20.4865 31.5958Z" fill="#161615"/>
<path d="M15.755 24.8922H18.8906L19.3665 25.3486L18.8906 25.805H15.755L15.2791 25.3486L15.755 24.8922Z" fill="#161615"/>
<path d="M22.0543 27.973H12.6194L12.1435 27.5166L12.6194 27.0316H22.0543L22.5302 27.5166L22.0543 27.973Z" fill="#161615"/>
<path d="M27.5695 16.7623L26.7576 17.5325L25.9737 16.7623L26.7576 15.9921L27.5695 16.7623Z" fill="#161615"/>
<path d="M18.1068 16.7623L17.3229 17.5325L16.511 16.7623L17.3229 15.9921L18.1068 16.7623Z" fill="#161615"/>
<path d="M8.61596 16.7623L7.83206 17.5325L7.04815 16.7623L7.83206 15.9921L8.61596 16.7623Z" fill="#161615"/>
<path d="M28.3535 9.37412V10.9716H6.29221V9.37412L4.72441 7.86225L6.29221 6.32186V4.72441H28.3535V6.32186L29.9213 7.86225L28.3535 9.37412Z" fill="#161615"/>
</svg>
